<?xml version="1.0" encoding="utf-8"?>
<!-- Generator: Adobe Illustrator 27.9.6, SVG Export Plug-In . SVG Version: 9.03 Build 54986)  -->
<svg version="1.1" id="Layer_1" xmlns="http://www.w3.org/2000/svg" xmlns:xlink="http://www.w3.org/1999/xlink" x="0px" y="0px"
	 viewBox="0 0 288.3 332.3" style="enable-background:new 0 0 288.3 332.3;" xml:space="preserve">
<style type="text/css">
	.st0{fill:#231F20;}
	.st1{enable-background:new    ;}
	.st2{fill:#FAFDFF;}
</style>
<path class="st0" d="M287.8,82.6l0.5,166.1l-143.6,83.6L0.5,249.7l0,0L0,83.5L143.6,0L287.8,82.6"/>
<g class="st1">
	<path class="st2" d="M66.3,245l4.6-39.4h90.6l2-16.4H72.9l5.6-45.6h90.8l2-16.8H80.8l5-41.8h136l-19.6,160H66.3z"/>
</g>
</svg>
